Working with Large Data • defogger
…
Build the Centene RESP Table

toc_resp_centene <- toc_url_centene |> 
                    dplyr::select(origin) |>
                    dplyr::distinct() |> 
                    tibble::deframe() |> 
                    purrr::map_dfr(defog_toc)

toc_resp_centene <- toc_resp_centene |> 
                    dplyr::rename(type = rate_type) |> 
                    dplyr::mutate(entity = dplyr::case_when(
                    entity == "Centene Management Company LLC" ~ "Centene", 
                    TRUE ~ entity))

#> # A tibble: 3,778 × 9
#>       id plan_name           plan_…¹ plan_id plan_…² entity type  locat…³ origin
#>    <int> <chr>               <chr>   <chr>   <chr>   <chr>  <chr> <chr>   <chr> 
#>  1     1 "Minimum Coverage … HIOS    67138C… indivi… Cente… in_n… http:/… https…
#>  2     1 "Minimum Coverage … HIOS    67138C… indivi… Cente… out_… http:/… https…
#>  3     1 "Minimum Coverage … HIOS    99110C… indivi… Cente… in_n… http:/… https…
#>  4     1 "Minimum Coverage … HIOS    99110C… indivi… Cente… out_… http:/… https…
#>  5     1 "Silver 70 Ambette… HIOS    99110C… indivi… Cente… in_n… http:/… https…
#>  6     1 "Silver 70 Ambette… HIOS    99110C… indivi… Cente… out_… http:/… https…
#>  7     1 "Silver 70 Ambette… HIOS    99110C… indivi… Cente… in_n… http:/… https…
#>  8     1 "Silver 70 Ambette… HIOS    99110C… indivi… Cente… out_… http:/… https…
#>  9     1 "Bronze 60 Ambette… HIOS    67138C… indivi… Cente… in_n… http:/… https…
#> 10     1 "Bronze 60 Ambette… HIOS    67138C… indivi… Cente… out_… http:/… https…
#> # … with 3,768 more rows, and abbreviated variable names ¹​plan_id_type,
#> #   ²​plan_market_type, ³​location
…
