defogger • defogger
…
We can then join the two pairs of data frames for further analysis:

# OON file
centene_oon_npi_join <- dplyr::full_join(
  centene_oon_CA_file, 
  centene_oon_npi_result, 
  by = "npi")

centene_oon_npi_join
#> # A tibble: 1,320 × 68
#>    name    billi…¹ billi…² billi…³ descr…⁴ ein   servi…⁵ billi…⁶ allow…⁷ bille…⁸
#>    <chr>   <chr>   <chr>   <chr>   <chr>   <chr> <chr>   <chr>     <dbl>   <dbl>
#>  1 ANES U… CPT     2022    00813   ANESTH… 3301… 24      profes…   1568     4655
#>  2 ANES U… CPT     2022    00813   ANESTH… 3301… 24      profes…   1568     4655
#>  3 NFCT D… HCPCS   2022    0202U   NFCT D… 8220… 20      profes…   9586.   33925
#>  4 NFCT D… HCPCS   2022    0202U   NFCT D… 8220… 20      profes…   9586.   33925
#>  5 ANTIBO… HCPCS   2022    0224U   ANTB S… 4641… 11      profes…   1475.   10500
#>  6 ANTIBO… HCPCS   2022    0224U   ANTB S… 4641… 11      profes…   1475.   10500
#>  7 ANTIBO… HCPCS   2022    0224U   ANTB S… 4641… 11      profes…   1475.   10500
#>  8 ANTIBO… HCPCS   2022    0224U   ANTB S… 4641… 11      profes…   1475.   10500
#>  9 ANTIBO… HCPCS   2022    0224U   ANTB S… 4641… 11      profes…   1475.   10500
#> 10 ANTIBO… HCPCS   2022    0224U   ANTB S… 4641… 11      profes…   1475.   10500
#> # … with 1,310 more rows, 58 more variables: npi <chr>, prov_type <chr>,
#> #   id <chr>, first_name <chr>, last_name <chr>, credential <chr>,
#> #   sole_proprietor <chr>, gender <chr>, enumeration_date <chr>,
#> #   last_updated <chr>, status <chr>, name_prefix <chr>, country_abb <chr>,
#> #   country_name <chr>, address_purpose <chr>, address_type <chr>,
#> #   address_1 <chr>, address_2 <chr>, city <chr>, state_abb <chr>,
#> #   postal_code <chr>, telephone_number <chr>, fax_number <chr>, …

# INN file
centene_inn_npi_join <- dplyr::full_join(
  centene_inn_CA_file, 
  centene_inn_npi_result, 
  by = "npi")

centene_inn_npi_join
#> # A tibble: 42 × 68
#>    negot…¹ name  billi…² billi…³ billi…⁴ descr…⁵ negot…⁶ negot…⁷ expir…⁸ servi…⁹
#>    <chr>   <chr> <chr>   <chr>   <chr>   <chr>   <chr>     <dbl> <chr>   <chr>  
#>  1 ffs     STRA… CPT     2022    29240   STRAPP… negoti…    27.0 9999-1… 11     
#>  2 ffs     STRA… CPT     2022    29240   STRAPP… negoti…    27.0 9999-1… 11     
#>  3 ffs     STRA… CPT     2022    29240   STRAPP… negoti…    27.0 9999-1… 11     
#>  4 ffs     STRA… CPT     2022    29240   STRAPP… negoti…    27.0 9999-1… 11     
#>  5 ffs     STRA… CPT     2022    29240   STRAPP… negoti…    27.0 9999-1… 11     
#>  6 ffs     STRA… CPT     2022    29240   STRAPP… negoti…    27.0 9999-1… 11     
#>  7 ffs     STRA… CPT     2022    29240   STRAPP… negoti…    27.0 9999-1… 11     
#>  8 ffs     STRA… CPT     2022    29240   STRAPP… negoti…    27.0 9999-1… 11     
#>  9 ffs     STRA… CPT     2022    29240   STRAPP… negoti…    27.0 9999-1… 11     
#> 10 ffs     STRA… CPT     2022    29240   STRAPP… negoti…    27.0 9999-1… 11     
#> # … with 32 more rows, 58 more variables: billing_class <chr>,
#> #   additional_information <chr>, billing_code_modifier <chr>, npi <chr>,
#> #   ein <chr>, prov_type <chr>, id <chr>, first_name <chr>, last_name <chr>,
#> #   middle_name <chr>, credential <chr>, sole_proprietor <chr>, gender <chr>,
#> #   enumeration_date <chr>, last_updated <chr>, status <chr>,
#> #   name_prefix <chr>, country_abb <chr>, country_name <chr>,
#> #   address_purpose <chr>, address_type <chr>, address_1 <chr>, city <chr>, …
…
